{
  "News7": {
    "news":"Beijing Municipal council includes garbage disposal and recycling in city plans.",
    "date":"2016-11-06 22:05",
    "srch":"https://www.google.com/search?q=Beijing+includes+garbage+disposal+recycling+in+urban+plan"
  },
  "News6": {
    "news":"‘Super’ cold wave front hits Beijing.",
    "date":"2016-11-06 22:02",
    "srch":"https://www.google.com/search?q=Strong+cold+wave+sweeps+beijing"
  },
  "News5": {
    "news":"Beijing house prices are projected to maintain in steady boom",
    "date":"2016-11-22 22:00",
    "srch":"https://www.google.com/search?q=Beijing+house+prices+not+to+go+down"
  },
  "News4": {
    "news":"Beijing may give freedom to investment Wall Street banks allowing them to operate without mandatory joint ventures.",
    "date":"2016-11-06 05:27",
    "srch":"https://www.google.com/search?q=beijing+wallstreet+run+their+own"
  },
  "News3": {
    "news":"Explosion in coal mine takes the lives of 15 people and 18 missing.",
    "date":"2016-10-31 20:53",
    "srch":"https://www.google.com/search?q=Yongchuan+District+Coal+Mine+Gas+Explosion"
  },
  "News2": {
    "news":"Biggest Air Purifier being built in Beijing",
    "date":"2016-10-28 20:37",
    "srch":"https://www.google.com/search?q=Biggest+Air+Purifier+beijing"
  },
  "News1": {
    "news":"Beijing ranked top Chinese spending city.",
    "date":"2016-10-28 20:26",
    "srch":"https://www.google.com/search?q=beijing+top+spending+city+China"
  }
}